<?xml version="1.0" encoding="UTF-8"?>
<svg id="Layer_2" data-name="Layer 2" xmlns="http://www.w3.org/2000/svg" viewBox="0 0 120 35.48">
  <defs>
    <style>
      .cls-1 {
        fill: #fff;
        stroke-width: 0px;
      }
    </style>
  </defs>
  <g id="Layer_1-2" data-name="Layer 1">
    <g>
      <path class="cls-1" d="m118.55,22.21c-.53.26-1.24.46-2.05.46-1.44,0-2.22-.85-1.99-2.64l.24-1.96.47-3.79h-1.47v-.14s.22-1.64.22-1.64h1.47l.36-2.85,2.12-1.02-.48,3.87h2.57l-.23,1.78h-2.55l-.36,2.86-.32,2.55c-.11.93.16,1.19.92,1.19.53,0,1.14-.18,1.54-.39l-.45,1.72Z"/>
      <path class="cls-1" d="m107.15,20.68c.23.08.49.13.78.13.91,0,1.51-.37,2.33-1.1.06-.04.1-.09.16-.14l.06.07,1.09,1.17c-.93.99-2.06,1.86-3.93,1.86-1.22,0-2.23-.48-2.92-1.32-.75-.91-1.1-2.24-.9-3.84.41-3.29,2.66-5.21,5.18-5.21,1.52,0,2.62.59,3.45,1.69l-1.38,1.39c-.74-.84-1.44-1.22-2.36-1.22-1.48,0-2.58,1.27-2.83,3.29-.21,1.61.22,2.84,1.27,3.24Z"/>
      <path class="cls-1" d="m98.5,12.29c2.93,0,4.06,2.29,3.72,4.98v.02c-.05.36-.12.67-.16.87h-6.83c-.02,1.92,1,2.73,2.25,2.73.86,0,1.6-.3,2.35-.79l1.05,1.25c-1.01.84-2.15,1.31-3.73,1.31-2.43,0-4.23-1.88-3.82-5.18.1-.85.31-1.59.61-2.25.89-1.93,2.55-2.95,4.57-2.95Zm1.76,4.27c.08-1.36-.45-2.51-2.13-2.51-1.36,0-2.29.92-2.67,2.51h4.8Z"/>
      <path class="cls-1" d="m88.98,22.67c-1.44,0-2.22-.85-1.99-2.64l.71-5.75h-1.47l.22-1.78h1.47l.36-2.85,2.12-1.02-.48,3.87h2.57l-.23,1.78h-2.55l-.68,5.41c-.11.93.17,1.19.92,1.19.53,0,1.14-.18,1.54-.39l-.45,1.72c-.4.2-.9.36-1.46.42-.18.02-.39.04-.59.04Z"/>
      <path class="cls-1" d="m77.51,17.44c-.28,2.18.62,3.37,2.15,3.37s2.73-1.5,2.96-3.32c.25-2.03-.59-3.34-2.22-3.34-1.53,0-2.65,1.31-2.89,3.28Zm3.2-5.14c1.65,0,2.93.79,3.58,2.15.38.8.53,1.83.39,3-.41,3.29-2.67,5.23-5.33,5.23s-4.28-2.07-3.9-5.18c.1-.81.32-1.55.63-2.19.92-1.92,2.67-3.01,4.62-3.01Z"/>
      <path class="cls-1" d="m4.01,20.25c3.98,6.28,34.01,15.85,42.84,5.27.77-.93,1.39-2.02,1.81-3.28.36-1.08.66-2.17.95-3.25,1.65-5.82,3.53-11.43,16.29-15.3,2.46-.74,4.62-1.14,7.73-1.3l-4.44-.41c-10.69-.37-4.22-.16-13.81-.16-15.24,0-31.76,3.13-42.01,7.49-4.12,1.74-7.21,3.7-8.8,5.72-1.37,1.71-1.65,3.48-.55,5.22ZM93.59,3.34c-3.06-.53-6.43-.78-9.83-.78-17.05,0-30.87,7.12-30.87,15.9,0,2.74,1.38,5.33,3.8,7.58l.03.03v.06s.04-.02.04-.02c4.79,4.41,13.53,7.55,23.64,8.17-6.64.77-13.64,1.21-21.2,1.21C26.49,35.48,0,27.54,0,17.75c0-1.56.68-3.09,1.95-4.53,2.08-2.38,5.75-4.56,10.66-6.43C23.45,2.65,40.28,0,59.18,0c12.85,0,24.81,1.26,34.51,3.34h-.1Z"/>
      <path class="cls-1" d="m73.64,12.29c.83,0,1.31.15,1.7.41l-.77,1.86c-.4-.23-.84-.36-1.51-.36-1.28,0-2.14.87-2.35,2.56l-.71,5.69h-2.02l.56-4.56.68-5.41h2.02l-.11.95c.55-.67,1.48-1.16,2.51-1.16Z"/>
      <path class="cls-1" d="m61.77,20.87c1.45,0,2.37-1.07,2.63-3.17.31-2.5-.38-3.6-1.87-3.6-.97,0-1.89.62-2.5,1.27l-.53,4.19c.38.59,1.24,1.31,2.27,1.31Zm1.36-8.57c2.23,0,3.78,1.55,3.31,5.35-.42,3.41-2.55,5.03-4.7,5.03-1.05,0-1.96-.53-2.45-1.14l-.45,3.58-1.97.93-.13.06-.04-.04v-.03l1.69-13.53h2.01l-.11.95c.83-.67,1.75-1.16,2.83-1.16Z"/>
      <path class="cls-1" d="m56.7,26.13v-.06s.03.02.05.04l-.05.02Z"/>
      <path class="cls-1" d="m39.6,17.06c-.26,2.18.62,3.37,2.16,3.37s2.73-1.49,2.95-3.32c.25-2.03-.59-3.34-2.22-3.34-1.53,0-2.63,1.31-2.89,3.28Zm3.2-5.14c2.65,0,4.36,2.03,3.97,5.14-.08.62-.22,1.19-.41,1.71-.85,2.25-2.74,3.52-4.9,3.52-2.6,0-4.29-2.07-3.9-5.18.1-.81.31-1.55.62-2.19.93-1.92,2.68-3.01,4.62-3.01Z"/>
      <path class="cls-1" d="m35.26,21.84c-.53.26-1.24.45-2.05.45-1.44,0-2.22-.85-1.99-2.63l.71-5.75h-1.47l.22-1.79h1.47l.36-2.84,2.12-1.03-.48,3.87h2.57l-.23,1.79h-2.55l-.68,5.41c-.11.93.17,1.19.92,1.19.53,0,1.14-.19,1.54-.4l-.45,1.73Z"/>
      <path class="cls-1" d="m21.95,17.76c-.25,2.02.45,2.73,1.78,2.73s2.24-.93,2.45-2.54l.72-5.83h2.02l-.2,1.57-1.05,8.39h-2.02l.11-.94c-.41.49-1.06.85-1.76,1.02-.32.08-.64.13-.98.13-1.1,0-1.93-.32-2.47-.97-.63-.73-.85-1.91-.66-3.49l.29-2.28.42-3.43h2.02l-.7,5.64Z"/>
      <path class="cls-1" d="m12.65,20.53c.86,0,1.69-.41,2.27-.89.15-.13.28-.25.39-.38l.17-1.42c-.52-.26-1.2-.44-2.3-.44-.97,0-1.71.31-2.07.85-.13.18-.21.4-.24.63-.13.99.44,1.65,1.78,1.65Zm1.68-8.62c2.3,0,3.75,1.08,3.46,3.34l-.63,5.1-.22,1.73h-1.99l.13-.99c-.79.69-1.86,1.19-2.99,1.19-1.67,0-3.46-.91-3.15-3.35.07-.54.23-1.01.47-1.41.76-1.24,2.27-1.81,4.04-1.81.97,0,1.71.13,2.25.38l.09-.75c.14-1.08-.47-1.69-1.74-1.69-1.06,0-1.91.2-2.77.63l-.6-1.48c.87-.48,1.81-.78,2.92-.86.23-.02.47-.04.72-.04Z"/>
    </g>
  </g>
</svg>